_____________________________________________________________


el grafo del archivo large con radio de 25 metros contiene:
	321 vertices
	que cuentan con 12647 arcos
_____________________________________________________________


el grafo del archivo large con radio de 50 metros contiene:
	321 vertices
	que cuentan con 12647 arcos
_____________________________________________________________


el grafo del archivo large con radio de 75 metros contiene:
	321 vertices
	que cuentan con 12647 arcos
_____________________________________________________________


el grafo del archivo large con radio de 100 metros contiene:
	321 vertices
	que cuentan con 12647 arcos
____________________________________________________________________


el grafo del archivo medium con radio de 25 metros contiene:
	222 vertices
	que cuentan con 5106 arcos
______________________________________________________


el grafo del archivo medium con radio de 50 metros contiene:
	222 vertices
	que cuentan con 5106 arcos

_____________________________________________________________


el grafo del archivo medium con radio de 75 metros contiene:
	222 vertices
	que cuentan con 5106 arcos
_____________________________________________________________


el grafo del archivo medium con radio de 100 metros contiene:
	222 vertices
	que cuentan con 5106 arcos
_____________________________________________________________


el grafo del archivo small con radio de 25 metros contiene:
	123 vertices
	que cuentan con 1951 arcos
_____________________________________________________________


el grafo del archivo small con radio de 50 metros contiene:
	123 vertices
	que cuentan con 1951 arcos
_____________________________________________________________


el grafo del archivo small con radio de 75 metros contiene:
	123 vertices
	que cuentan con 1951 arcos
_____________________________________________________________


el grafo del archivo small con radio de 100 metros contiene:
	123 vertices
	que cuentan con 1951 arcos
