_____________________________________________________________


el grafo del archivo large con radio de 100 metros contiene:
	319 vertices
	que cuentan con 12174 arcos
_____________________________________________________________


el grafo del archivo large con radio de 75 metros contiene:
	319 vertices
	que cuentan con 12174 arcos
_____________________________________________________________


el grafo del archivo large con radio de 50 metros contiene:
	319 vertices
	que cuentan con 12174 arcos
_____________________________________________________________


el grafo del archivo large con radio de 25 metros contiene:
	319 vertices
	que cuentan con 12174 arcos
